dump.vcd
$date
	Wed Aug  6 15:08:35 2025
$end
$version
	Icarus Verilog
$end
$timescale
	1s
$end
$scope module uart_tx_tb $end
$var wire 1 ! rx $end
$var wire 1 " tx $end
$var wire 1 # tick $end
$var wire 1 $ rx_busy $end
$var wire 1 % done $end
$var wire 1 & data_ready $end
$var wire 8 ' data_out [7:0] $end
$var wire 1 ( busy $end
$var reg 1 ) clk $end
$var reg 8 * data_in [7:0] $end
$var reg 1 + reset $end
$var reg 1 , start $end
$scope module baud_inst $end
$var wire 1 ) clk $end
$var wire 1 + reset $end
$var parameter 32 - BAUD_DIV $end
$var reg 13 . count [12:0] $end
$var reg 1 # tick $end
$upscope $end
$scope module rx_inst $end
$var wire 1 ) clk $end
$var wire 1 + reset $end
$var wire 1 ! rx $end
$var wire 1 # tick $end
$var reg 4 / bit_count [3:0] $end
$var reg 1 $ busy $end
$var reg 8 0 data_out [7:0] $end
$var reg 1 & data_ready $end
$var reg 2 1 next_state [1:0] $end
$var reg 4 2 sample_count [3:0] $end
$var reg 8 3 shift_reg [7:0] $end
$var reg 2 4 state [1:0] $end
$upscope $end
$scope module tx_inst $end
$var wire 1 ) clk $end
$var wire 8 5 data_in [7:0] $end
$var wire 1 + reset $end
$var wire 1 , start $end
$var wire 1 # tick $end
$var reg 4 6 bit_count [3:0] $end
$var reg 1 ( busy $end
$var reg 1 % done $end
$var reg 2 7 next_state [1:0] $end
$var reg 10 8 shift_reg [9:0] $end
$var reg 2 9 state [1:0] $end
$var reg 1 " tx $end
$upscope $end
$upscope $end
$enddefinitions $end
$comment Show the parameter values. $end
$dumpall
b1010 -
$end
#0
$dumpvars
bx 9
bx 8
bx 7
bx 6
b10101011 5
bx 4
bx 3
bx 2
bx 1
bx 0
bx /
b0 .
0,
1+
b10101011 *
0)
x(
bx '
x&
x%
x$
0#
x"
x!
$end
#5
b0 6
b0 8
1!
1"
0%
0(
b0 7
b0 9
b0 3
b0 /
0$
0&
b0 '
b0 0
b0 1
b0 4
1)
#10
0)
0+
#15
b1 .
1)
#20
0)
#25
b10 .
1)
#30
0)
#35
b11 .
1)
#40
0)
#45
b100 .
1)
#50
0)
#55
b101 .
1)
#60
0)
1,
#65
b110 .
1)
#70
0)
#75
b111 .
1)
#80
0)
#85
b1000 .
1)
#90
0)
#95
b1001 .
1)
#100
0)
#105
1#
b0 .
1)
#110
0)
#115
0#
b1 .
1(
b1 7
b1101010110 8
1)
#120
0)
0,
#125
b10 .
b1 9
1)
#130
0)
#135
b11 .
1)
#140
0)
#145
b100 .
1)
#150
0)
#155
b101 .
1)
#160
0)
#165
b110 .
1)
#170
0)
#175
b111 .
1)
#180
0)
#185
b1000 .
1)
#190
0)
#195
b1001 .
1)
#200
0)
#205
1#
b0 .
1)
#210
0)
#215
0#
b1 .
b10 7
b1 6
b110101011 8
0!
0"
1)
#220
0)
#225
b10 .
b10 9
1)
#230
0)
#235
b11 .
1)
#240
0)
#245
b100 .
1)
#250
0)
#255
b101 .
1)
#260
0)
#265
b110 .
1)
#270
0)
#275
b111 .
1)
#280
0)
#285
b1000 .
1)
#290
0)
#295
b1001 .
1)
#300
0)
#305
1#
b0 .
1)
#310
0)
#315
0#
b1 .
b1 1
b0 2
1$
b10 6
b11010101 8
1!
1"
1)
#320
0)
#325
b10 .
b1 4
1)
#330
0)
#335
b11 .
1)
#340
0)
#345
b100 .
1)
#350
0)
#355
b101 .
1)
#360
0)
#365
b110 .
1)
#370
0)
#375
b111 .
1)
#380
0)
#385
b1000 .
1)
#390
0)
#395
b1001 .
1)
#400
0)
#405
1#
b0 .
1)
#410
0)
#415
0#
b1 .
b1 /
b10000000 3
b0 2
b11 6
b1101010 8
1)
#420
0)
#425
b10 .
1)
#430
0)
#435
b11 .
1)
#440
0)
#445
b100 .
1)
#450
0)
#455
b101 .
1)
#460
0)
#465
b110 .
1)
#470
0)
#475
b111 .
1)
#480
0)
#485
b1000 .
1)
#490
0)
#495
b1001 .
1)
#500
0)
#505
1#
b0 .
1)
#510
0)
#515
0#
b1 .
b10 /
b11000000 3
b0 2
b100 6
b110101 8
0!
0"
1)
#520
0)
#525
b10 .
1)
#530
0)
#535
b11 .
1)
#540
0)
#545
b100 .
1)
#550
0)
#555
b101 .
1)
#560
0)
#565
b110 .
1)
#570
0)
#575
b111 .
1)
#580
0)
#585
b1000 .
1)
#590
0)
#595
b1001 .
1)
#600
0)
#605
1#
b0 .
1)
#610
0)
#615
0#
b1 .
b11 /
b1100000 3
b0 2
b101 6
b11010 8
1!
1"
1)
#620
0)
#625
b10 .
1)
#630
0)
#635
b11 .
1)
#640
0)
#645
b100 .
1)
#650
0)
#655
b101 .
1)
#660
0)
#665
b110 .
1)
#670
0)
#675
b111 .
1)
#680
0)
#685
b1000 .
1)
#690
0)
#695
b1001 .
1)
#700
0)
#705
1#
b0 .
1)
#710
0)
#715
0#
b1 .
b100 /
b10110000 3
b0 2
b110 6
b1101 8
0!
0"
1)
#720
0)
#725
b10 .
1)
#730
0)
#735
b11 .
1)
#740
0)
#745
b100 .
1)
#750
0)
#755
b101 .
1)
#760
0)
#765
b110 .
1)
#770
0)
#775
b111 .
1)
#780
0)
#785
b1000 .
1)
#790
0)
#795
b1001 .
1)
#800
0)
#805
1#
b0 .
1)
#810
0)
#815
0#
b1 .
b101 /
b1011000 3
b0 2
b111 6
b110 8
1!
1"
1)
#820
0)
#825
b10 .
1)
#830
0)
#835
b11 .
1)
#840
0)
#845
b100 .
1)
#850
0)
#855
b101 .
1)
#860
0)
#865
b110 .
1)
#870
0)
#875
b111 .
1)
#880
0)
#885
b1000 .
1)
#890
0)
#895
b1001 .
1)
#900
0)
#905
1#
b0 .
1)
#910
0)
#915
0#
b1 .
b110 /
b10101100 3
b0 2
b1000 6
b11 8
0!
0"
1)
#920
0)
#925
b10 .
1)
#930
0)
#935
b11 .
1)
#940
0)
#945
b100 .
1)
#950
0)
#955
b101 .
1)
#960
0)
#965
b110 .
1)
#970
0)
#975
b111 .
1)
#980
0)
#985
b1000 .
1)
#990
0)
#995
b1001 .
1)
#1000
0)
#1005
1#
b0 .
1)
#1010
0)
#1015
0#
b1 .
b111 /
b1010110 3
b0 2
b1001 6
b1 8
1!
1"
1)
#1020
0)
#1025
b10 .
1)
#1030
0)
#1035
b11 .
1)
#1040
0)
#1045
b100 .
1)
#1050
0)
#1055
b101 .
1)
#1060
0)
#1065
b110 .
1)
#1070
0)
#1075
b111 .
1)
#1080
0)
#1085
b1000 .
1)
#1090
0)
#1095
b1001 .
1)
#1100
0)
#1105
1#
b0 .
1)
#1110
0)
#1115
0#
b1 .
b10 1
b1000 /
b10101011 3
b0 2
b11 7
b1010 6
b0 8
1)
#1120
0)
#1125
b10 .
b11 9
b10 4
1)
#1130
0)
#1135
b11 .
1)
#1140
0)
#1145
b100 .
1)
#1150
0)
#1155
b101 .
1)
#1160
0)
#1165
b110 .
1)
#1170
0)
#1175
b111 .
1)
#1180
0)
#1185
b1000 .
1)
#1190
0)
#1195
b1001 .
1)
#1200
0)
#1205
1#
b0 .
1)
#1210
0)
#1215
0#
b1 .
b0 1
1&
b10101011 '
b10101011 0
b0 7
0(
1%
1)
#1220
0)
#1225
b10 .
b0 9
b0 4
1)
#1230
0)
#1235
b11 .
1)
#1240
0)
#1245
b100 .
1)
#1250
0)
#1255
b101 .
1)
#1260
0)
#1265
b110 .
1)
